<?xml version="1.0" encoding="UTF-8" standalone="no"?>
<project description="" id="1" linkage="" name="SimplCommerce" version="">
<graphs>
<graph description="" id="6" linkage="" name="Login path" type="ACTIVITY_DIAGRAM" version="">
<node description="" height="25.0" id="2" name="START" priority="" style="STYLE_ACTIVITY_START" width="25.0" xpos="137.5" ypos="22.41796875"/>
<edge description="" id="6" name="1" priority="" source="2" target="3"/>
<node description="" height="40.0" id="3" name="is_logged" priority="(not defined)" style="STYLE_ACTIVITY_DECISION" width="40.0" xpos="130.0" ypos="97.41796875"/>
<edge description="" id="7" name="2" priority="" source="3" target="5"/>
<edge description="" id="30" name="21" priority="(not defined)" source="3" target="29"/>
<edge description="" id="36" name="20" priority="" source="3" target="35"/>
<node description="" height="60.0" id="4" name="knows_data" priority="(not defined)" style="STYLE_ACTIVITY_DECISION" width="70.0" xpos="89.0" ypos="417.25390625"/>
<edge description="" id="12" name="5" priority="" source="4" target="11"/>
<edge description="" id="14" name="6" priority="" source="4" target="13"/>
<edge description="" id="23" name="11" priority="" source="4" target="22"/>
<node description="" height="60.0" id="5" name="has_acc" priority="(not defined)" style="STYLE_ACTIVITY_DECISION" width="70.0" xpos="11.0" ypos="189.876953125"/>
<edge description="" id="9" name="3" priority="" source="5" target="8"/>
<edge description="" id="34" name="19" priority="" source="5" target="11"/>
<node description="" height="40.0" id="8" name="show_login" priority="(not defined)" style="STYLE_ACTIVITY_NODE" width="80.0" xpos="36.0" ypos="314.794921875"/>
<edge description="" id="10" name="4" priority="" source="8" target="4"/>
<node description="" height="40.0" id="11" name="show_register" priority="(not defined)" style="STYLE_ACTIVITY_NODE" width="80.0" xpos="203.0" ypos="537.25390625"/>
<edge description="" id="20" name="9" priority="" source="11" target="19"/>
<node description="" height="40.0" id="13" name="show_forgot" priority="(not defined)" style="STYLE_ACTIVITY_NODE" width="80.0" xpos="0.0" ypos="537.25390625"/>
<edge description="" id="16" name="7" priority="" source="13" target="15"/>
<node description="" height="40.0" id="15" name="send_email" priority="(not defined)" style="STYLE_ACTIVITY_NODE" width="80.0" xpos="2.0" ypos="647.25390625"/>
<edge description="" id="18" name="8" priority="" source="15" target="17"/>
<node description="" height="35.0" id="17" name="not_logged_2" priority="(not defined)" style="STYLE_ACTIVITY_END" width="35.0" xpos="24.5" ypos="774.671875"/>
<node description="" height="60.0" id="19" name="check_reg" priority="(not defined)" style="STYLE_ACTIVITY_DECISION" width="60.0" xpos="181.0" ypos="637.25390625"/>
<edge description="" id="21" name="10" priority="" source="19" target="11"/>
<edge description="" id="27" name="14" priority="" source="19" target="25"/>
<node description="" height="60.0" id="22" name="check_login" priority="(not defined)" style="STYLE_ACTIVITY_DECISION" width="60.0" xpos="111.0" ypos="527.25390625"/>
<edge description="" id="24" name="12" priority="" source="22" target="4"/>
<edge description="" id="26" name="13" priority="" source="22" target="25"/>
<node description="" height="35.0" id="25" name="logged_2" priority="(not defined)" style="STYLE_ACTIVITY_END" width="35.0" xpos="163.5" ypos="774.671875"/>
<node description="" height="40.0" id="29" name="logout" priority="(not defined)" style="STYLE_ACTIVITY_NODE" width="80.0" xpos="111.0" ypos="199.876953125"/>
<edge description="" id="33" name="18" priority="" source="29" target="32"/>
<node description="" height="35.0" id="32" name="not_logged_1" priority="(not defined)" style="STYLE_ACTIVITY_END" width="35.0" xpos="193.5" ypos="329.75390625"/>
<node description="" height="35.0" id="35" name="logged_1" priority="(not defined)" style="STYLE_ACTIVITY_END" width="35.0" xpos="228.5" ypos="214.8359375"/>
<test_case changed="false" combinations_data_rows="14" graph_id="6" name="Test situations 1, TDL= 1, ALG= PCT." note="" test_situations_data_rows="7">
<combinations_data_value col="0" selected_row="0">check_login</combinations_data_value>
<combinations_data_value col="1" selected_row="0">11
</combinations_data_value>
<combinations_data_value col="0" selected_row="1">logged_1</combinations_data_value>
<combinations_data_value col="1" selected_row="1">20
</combinations_data_value>
<combinations_data_value col="0" selected_row="2">knows_data</combinations_data_value>
<combinations_data_value col="1" selected_row="2">4
12
</combinations_data_value>
<combinations_data_value col="0" selected_row="3">not_logged_1</combinations_data_value>
<combinations_data_value col="1" selected_row="3">18
</combinations_data_value>
<combinations_data_value col="0" selected_row="4">send_email</combinations_data_value>
<combinations_data_value col="1" selected_row="4">7
</combinations_data_value>
<combinations_data_value col="0" selected_row="5">show_forgot</combinations_data_value>
<combinations_data_value col="1" selected_row="5">6
</combinations_data_value>
<combinations_data_value col="0" selected_row="6">show_login</combinations_data_value>
<combinations_data_value col="1" selected_row="6">3
</combinations_data_value>
<combinations_data_value col="0" selected_row="7">not_logged_2</combinations_data_value>
<combinations_data_value col="1" selected_row="7">8
</combinations_data_value>
<combinations_data_value col="0" selected_row="8">is_logged</combinations_data_value>
<combinations_data_value col="1" selected_row="8">1
</combinations_data_value>
<combinations_data_value col="0" selected_row="9">has_acc</combinations_data_value>
<combinations_data_value col="1" selected_row="9">2
</combinations_data_value>
<combinations_data_value col="0" selected_row="10">logout</combinations_data_value>
<combinations_data_value col="1" selected_row="10">21
</combinations_data_value>
<combinations_data_value col="0" selected_row="11">show_register</combinations_data_value>
<combinations_data_value col="1" selected_row="11">5
19
10
</combinations_data_value>
<combinations_data_value col="0" selected_row="12">check_reg</combinations_data_value>
<combinations_data_value col="1" selected_row="12">9
</combinations_data_value>
<combinations_data_value col="0" selected_row="13">logged_2</combinations_data_value>
<combinations_data_value col="1" selected_row="13">14
13
</combinations_data_value>
<test_situation_row>
<value edge_id="6" name="1"/>
<value edge_id="7" name="2"/>
<value edge_id="9" name="3"/>
<value edge_id="10" name="4"/>
<value edge_id="14" name="6"/>
<value edge_id="16" name="7"/>
<value edge_id="18" name="8"/>
</test_situation_row>
<test_situation_row>
<value edge_id="6" name="1"/>
<value edge_id="7" name="2"/>
<value edge_id="9" name="3"/>
<value edge_id="10" name="4"/>
<value edge_id="23" name="11"/>
<value edge_id="24" name="12"/>
<value edge_id="23" name="11"/>
<value edge_id="24" name="12"/>
<value edge_id="14" name="6"/>
<value edge_id="16" name="7"/>
<value edge_id="18" name="8"/>
</test_situation_row>
<test_situation_row>
<value edge_id="6" name="1"/>
<value edge_id="7" name="2"/>
<value edge_id="9" name="3"/>
<value edge_id="10" name="4"/>
<value edge_id="12" name="5"/>
<value edge_id="20" name="9"/>
<value edge_id="21" name="10"/>
<value edge_id="20" name="9"/>
<value edge_id="27" name="14"/>
</test_situation_row>
<test_situation_row>
<value edge_id="6" name="1"/>
<value edge_id="7" name="2"/>
<value edge_id="34" name="19"/>
<value edge_id="20" name="9"/>
<value edge_id="21" name="10"/>
<value edge_id="20" name="9"/>
<value edge_id="27" name="14"/>
</test_situation_row>
<test_situation_row>
<value edge_id="6" name="1"/>
<value edge_id="7" name="2"/>
<value edge_id="9" name="3"/>
<value edge_id="10" name="4"/>
<value edge_id="23" name="11"/>
<value edge_id="26" name="13"/>
</test_situation_row>
<test_situation_row>
<value edge_id="6" name="1"/>
<value edge_id="30" name="21"/>
<value edge_id="33" name="18"/>
</test_situation_row>
<test_situation_row>
<value edge_id="6" name="1"/>
<value edge_id="36" name="20"/>
</test_situation_row>
</test_case>
<test_case changed="false" combinations_data_rows="10" graph_id="6" name="Test situations 2, TDL= 2, ALG= PCT." note="" test_situations_data_rows="9">
<combinations_data_value col="0" selected_row="0">show_forgot</combinations_data_value>
<combinations_data_value col="1" selected_row="0">6 - 7
</combinations_data_value>
<combinations_data_value col="0" selected_row="1">show_login</combinations_data_value>
<combinations_data_value col="1" selected_row="1">3 - 4
</combinations_data_value>
<combinations_data_value col="0" selected_row="2">is_logged</combinations_data_value>
<combinations_data_value col="1" selected_row="2">1 - 2
1 - 21
1 - 20
</combinations_data_value>
<combinations_data_value col="0" selected_row="3">check_login</combinations_data_value>
<combinations_data_value col="1" selected_row="3">11 - 12
11 - 13
</combinations_data_value>
<combinations_data_value col="0" selected_row="4">has_acc</combinations_data_value>
<combinations_data_value col="1" selected_row="4">2 - 3
2 - 19
</combinations_data_value>
<combinations_data_value col="0" selected_row="5">logout</combinations_data_value>
<combinations_data_value col="1" selected_row="5">21 - 18
</combinations_data_value>
<combinations_data_value col="0" selected_row="6">show_register</combinations_data_value>
<combinations_data_value col="1" selected_row="6">5 - 9
19 - 9
10 - 9
</combinations_data_value>
<combinations_data_value col="0" selected_row="7">knows_data</combinations_data_value>
<combinations_data_value col="1" selected_row="7">4 - 5
4 - 6
4 - 11
12 - 5
12 - 6
12 - 11
</combinations_data_value>
<combinations_data_value col="0" selected_row="8">check_reg</combinations_data_value>
<combinations_data_value col="1" selected_row="8">9 - 10
9 - 14
</combinations_data_value>
<combinations_data_value col="0" selected_row="9">send_email</combinations_data_value>
<combinations_data_value col="1" selected_row="9">7 - 8
</combinations_data_value>
<test_situation_row>
<value name="START" node_id="2"/>
<value edge_id="6" name="1"/>
<value name="is_logged" node_id="3"/>
<value edge_id="7" name="2"/>
<value name="has_acc" node_id="5"/>
<value edge_id="9" name="3"/>
<value edge_id="10" name="4"/>
<value name="knows_data" node_id="4"/>
<value edge_id="14" name="6"/>
<value edge_id="16" name="7"/>
<value edge_id="18" name="8"/>
<value name="not_logged_2" node_id="17"/>
</test_situation_row>
<test_situation_row>
<value name="START" node_id="2"/>
<value edge_id="6" name="1"/>
<value name="is_logged" node_id="3"/>
<value edge_id="7" name="2"/>
<value name="has_acc" node_id="5"/>
<value edge_id="9" name="3"/>
<value edge_id="10" name="4"/>
<value name="knows_data" node_id="4"/>
<value edge_id="23" name="11"/>
<value name="check_login" node_id="22"/>
<value edge_id="24" name="12"/>
<value name="knows_data" node_id="4"/>
<value edge_id="14" name="6"/>
<value edge_id="16" name="7"/>
<value edge_id="18" name="8"/>
<value name="not_logged_2" node_id="17"/>
</test_situation_row>
<test_situation_row>
<value name="START" node_id="2"/>
<value edge_id="6" name="1"/>
<value name="is_logged" node_id="3"/>
<value edge_id="7" name="2"/>
<value name="has_acc" node_id="5"/>
<value edge_id="9" name="3"/>
<value edge_id="10" name="4"/>
<value name="knows_data" node_id="4"/>
<value edge_id="23" name="11"/>
<value name="check_login" node_id="22"/>
<value edge_id="24" name="12"/>
<value name="knows_data" node_id="4"/>
<value edge_id="23" name="11"/>
<value name="check_login" node_id="22"/>
<value edge_id="24" name="12"/>
<value name="knows_data" node_id="4"/>
<value edge_id="14" name="6"/>
<value edge_id="16" name="7"/>
<value edge_id="18" name="8"/>
<value name="not_logged_2" node_id="17"/>
</test_situation_row>
<test_situation_row>
<value name="START" node_id="2"/>
<value edge_id="6" name="1"/>
<value name="is_logged" node_id="3"/>
<value edge_id="7" name="2"/>
<value name="has_acc" node_id="5"/>
<value edge_id="34" name="19"/>
<value edge_id="20" name="9"/>
<value name="check_reg" node_id="19"/>
<value edge_id="21" name="10"/>
<value edge_id="20" name="9"/>
<value name="check_reg" node_id="19"/>
<value edge_id="27" name="14"/>
<value name="logged_2" node_id="25"/>
</test_situation_row>
<test_situation_row>
<value name="START" node_id="2"/>
<value edge_id="6" name="1"/>
<value name="is_logged" node_id="3"/>
<value edge_id="7" name="2"/>
<value name="has_acc" node_id="5"/>
<value edge_id="9" name="3"/>
<value edge_id="10" name="4"/>
<value name="knows_data" node_id="4"/>
<value edge_id="12" name="5"/>
<value edge_id="20" name="9"/>
<value name="check_reg" node_id="19"/>
<value edge_id="21" name="10"/>
<value edge_id="20" name="9"/>
<value name="check_reg" node_id="19"/>
<value edge_id="27" name="14"/>
<value name="logged_2" node_id="25"/>
</test_situation_row>
<test_situation_row>
<value name="START" node_id="2"/>
<value edge_id="6" name="1"/>
<value name="is_logged" node_id="3"/>
<value edge_id="7" name="2"/>
<value name="has_acc" node_id="5"/>
<value edge_id="9" name="3"/>
<value edge_id="10" name="4"/>
<value name="knows_data" node_id="4"/>
<value edge_id="23" name="11"/>
<value name="check_login" node_id="22"/>
<value edge_id="26" name="13"/>
<value name="logged_2" node_id="25"/>
</test_situation_row>
<test_situation_row>
<value name="START" node_id="2"/>
<value edge_id="6" name="1"/>
<value name="is_logged" node_id="3"/>
<value edge_id="7" name="2"/>
<value name="has_acc" node_id="5"/>
<value edge_id="9" name="3"/>
<value edge_id="10" name="4"/>
<value name="knows_data" node_id="4"/>
<value edge_id="23" name="11"/>
<value name="check_login" node_id="22"/>
<value edge_id="24" name="12"/>
<value name="knows_data" node_id="4"/>
<value edge_id="12" name="5"/>
<value edge_id="20" name="9"/>
<value name="check_reg" node_id="19"/>
<value edge_id="21" name="10"/>
<value edge_id="20" name="9"/>
<value name="check_reg" node_id="19"/>
<value edge_id="27" name="14"/>
<value name="logged_2" node_id="25"/>
</test_situation_row>
<test_situation_row>
<value name="START" node_id="2"/>
<value edge_id="6" name="1"/>
<value name="is_logged" node_id="3"/>
<value edge_id="30" name="21"/>
<value edge_id="33" name="18"/>
<value name="not_logged_1" node_id="32"/>
</test_situation_row>
<test_situation_row>
<value name="START" node_id="2"/>
<value edge_id="6" name="1"/>
<value name="is_logged" node_id="3"/>
<value edge_id="36" name="20"/>
<value name="logged_1" node_id="35"/>
</test_situation_row>
</test_case>
<test_case changed="false" combinations_data_rows="8" graph_id="6" name="Test situations 3, TDL= 3, ALG= PCT." note="" test_situations_data_rows="11">
<combinations_data_value col="0" selected_row="0">show_forgot</combinations_data_value>
<combinations_data_value col="1" selected_row="0">6 - 7 - 8
</combinations_data_value>
<combinations_data_value col="0" selected_row="1">show_login</combinations_data_value>
<combinations_data_value col="1" selected_row="1">3 - 4 - 5
3 - 4 - 6
3 - 4 - 11
</combinations_data_value>
<combinations_data_value col="0" selected_row="2">is_logged</combinations_data_value>
<combinations_data_value col="1" selected_row="2">1 - 2 - 3
1 - 2 - 19
1 - 21 - 18
1 - 20
</combinations_data_value>
<combinations_data_value col="0" selected_row="3">check_login</combinations_data_value>
<combinations_data_value col="1" selected_row="3">11 - 12 - 5
11 - 12 - 6
11 - 12 - 11
</combinations_data_value>
<combinations_data_value col="0" selected_row="4">has_acc</combinations_data_value>
<combinations_data_value col="1" selected_row="4">2 - 3 - 4
2 - 19 - 9
</combinations_data_value>
<combinations_data_value col="0" selected_row="5">show_register</combinations_data_value>
<combinations_data_value col="1" selected_row="5">5 - 9 - 10
5 - 9 - 14
19 - 9 - 10
19 - 9 - 14
10 - 9 - 10
10 - 9 - 14
</combinations_data_value>
<combinations_data_value col="0" selected_row="6">knows_data</combinations_data_value>
<combinations_data_value col="1" selected_row="6">4 - 5 - 9
4 - 6 - 7
4 - 11 - 12
4 - 11 - 13
12 - 5 - 9
12 - 6 - 7
12 - 11 - 12
12 - 11 - 13
</combinations_data_value>
<combinations_data_value col="0" selected_row="7">check_reg</combinations_data_value>
<combinations_data_value col="1" selected_row="7">9 - 10 - 9
</combinations_data_value>
<test_situation_row>
<value edge_id="6" name="1"/>
<value edge_id="7" name="2"/>
<value edge_id="9" name="3"/>
<value edge_id="10" name="4"/>
<value edge_id="14" name="6"/>
<value edge_id="16" name="7"/>
<value edge_id="18" name="8"/>
</test_situation_row>
<test_situation_row>
<value edge_id="6" name="1"/>
<value edge_id="7" name="2"/>
<value edge_id="9" name="3"/>
<value edge_id="10" name="4"/>
<value edge_id="23" name="11"/>
<value edge_id="24" name="12"/>
<value edge_id="14" name="6"/>
<value edge_id="16" name="7"/>
<value edge_id="18" name="8"/>
</test_situation_row>
<test_situation_row>
<value edge_id="6" name="1"/>
<value edge_id="7" name="2"/>
<value edge_id="9" name="3"/>
<value edge_id="10" name="4"/>
<value edge_id="23" name="11"/>
<value edge_id="24" name="12"/>
<value edge_id="23" name="11"/>
<value edge_id="24" name="12"/>
<value edge_id="23" name="11"/>
<value edge_id="24" name="12"/>
<value edge_id="14" name="6"/>
<value edge_id="16" name="7"/>
<value edge_id="18" name="8"/>
</test_situation_row>
<test_situation_row>
<value edge_id="6" name="1"/>
<value edge_id="7" name="2"/>
<value edge_id="34" name="19"/>
<value edge_id="20" name="9"/>
<value edge_id="21" name="10"/>
<value edge_id="20" name="9"/>
<value edge_id="21" name="10"/>
<value edge_id="20" name="9"/>
<value edge_id="27" name="14"/>
</test_situation_row>
<test_situation_row>
<value edge_id="6" name="1"/>
<value edge_id="7" name="2"/>
<value edge_id="9" name="3"/>
<value edge_id="10" name="4"/>
<value edge_id="12" name="5"/>
<value edge_id="20" name="9"/>
<value edge_id="21" name="10"/>
<value edge_id="20" name="9"/>
<value edge_id="21" name="10"/>
<value edge_id="20" name="9"/>
<value edge_id="27" name="14"/>
</test_situation_row>
<test_situation_row>
<value edge_id="6" name="1"/>
<value edge_id="7" name="2"/>
<value edge_id="9" name="3"/>
<value edge_id="10" name="4"/>
<value edge_id="23" name="11"/>
<value edge_id="24" name="12"/>
<value edge_id="12" name="5"/>
<value edge_id="20" name="9"/>
<value edge_id="27" name="14"/>
</test_situation_row>
<test_situation_row>
<value edge_id="6" name="1"/>
<value edge_id="7" name="2"/>
<value edge_id="34" name="19"/>
<value edge_id="20" name="9"/>
<value edge_id="27" name="14"/>
</test_situation_row>
<test_situation_row>
<value edge_id="6" name="1"/>
<value edge_id="7" name="2"/>
<value edge_id="9" name="3"/>
<value edge_id="10" name="4"/>
<value edge_id="23" name="11"/>
<value edge_id="26" name="13"/>
</test_situation_row>
<test_situation_row>
<value edge_id="6" name="1"/>
<value edge_id="7" name="2"/>
<value edge_id="9" name="3"/>
<value edge_id="10" name="4"/>
<value edge_id="23" name="11"/>
<value edge_id="24" name="12"/>
<value edge_id="23" name="11"/>
<value edge_id="26" name="13"/>
</test_situation_row>
<test_situation_row>
<value edge_id="6" name="1"/>
<value edge_id="30" name="21"/>
<value edge_id="33" name="18"/>
</test_situation_row>
<test_situation_row>
<value edge_id="6" name="1"/>
<value edge_id="36" name="20"/>
</test_situation_row>
</test_case>
</graph>
<graph description="" id="13" linkage="" name="Shop path" type="ACTIVITY_DIAGRAM" version="">
<node description="" height="40.0" id="4" name="open_product" priority="(not defined)" style="STYLE_ACTIVITY_NODE" width="80.0" xpos="64.0" ypos="97.41796875"/>
<edge description="" id="14" name="2" priority="" source="4" target="13"/>
<node description="" height="25.0" id="10" name="START" priority="" style="STYLE_ACTIVITY_START" width="25.0" xpos="91.5" ypos="22.41796875"/>
<edge description="" id="11" name="1" priority="" source="10" target="4"/>
<node description="" height="40.0" id="13" name="add_to_cart" priority="(not defined)" style="STYLE_ACTIVITY_NODE" width="80.0" xpos="30.0" ypos="187.41796875"/>
<edge description="" id="16" name="3" priority="" source="13" target="15"/>
<node description="" height="60.0" id="15" name="continue_shopping" priority="(not defined)" style="STYLE_ACTIVITY_DECISION" width="60.0" xpos="87.0" ypos="277.41796875"/>
<edge description="" id="17" name="4" priority="" source="15" target="4"/>
<edge description="" id="19" name="5" priority="" source="15" target="18"/>
<node description="" height="40.0" id="18" name="view_cart" priority="(not defined)" style="STYLE_ACTIVITY_NODE" width="80.0" xpos="15.0" ypos="387.41796875"/>
<edge description="" id="21" name="6" priority="" source="18" target="20"/>
<node description="" height="40.0" id="20" name="checkout" priority="(not defined)" style="STYLE_ACTIVITY_NODE" width="80.0" xpos="15.0" ypos="477.41796875"/>
<edge description="" id="23" name="7" priority="" source="20" target="22"/>
<node description="" height="40.0" id="22" name="is_logged" priority="(not defined)" style="STYLE_ACTIVITY_DECISION" width="40.0" xpos="35.0" ypos="567.41796875"/>
<edge description="" id="25" name="8" priority="" source="22" target="24"/>
<edge description="" id="27" name="9" priority="" source="22" target="26"/>
<node description="" height="40.0" id="24" name="login" priority="(not defined)" style="STYLE_ACTIVITY_NODE" width="80.0" xpos="0.0" ypos="657.41796875"/>
<edge description="" id="28" name="10" priority="" source="24" target="26"/>
<node description="" height="40.0" id="26" name="shipping_billing" priority="(not defined)" style="STYLE_ACTIVITY_NODE" width="80.0" xpos="15.0" ypos="747.41796875"/>
<edge description="" id="30" name="11" priority="" source="26" target="29"/>
<node description="" height="40.0" id="29" name="confirm_order" priority="(not defined)" style="STYLE_ACTIVITY_DECISION" width="40.0" xpos="50.0" ypos="837.41796875"/>
<edge description="" id="32" name="12" priority="" source="29" target="15"/>
<edge description="" id="36" name="13" priority="" source="29" target="35"/>
<node description="" height="40.0" id="35" name="choose_payment" priority="(not defined)" style="STYLE_ACTIVITY_DECISION" width="40.0" xpos="84.0" ypos="927.41796875"/>
<edge description="" id="37" name="14" priority="" source="35" target="15"/>
<edge description="" id="42" name="16" priority="" source="35" target="39"/>
<node description="" height="40.0" id="39" name="relay_to_bank" priority="(not defined)" style="STYLE_ACTIVITY_NODE" width="80.0" xpos="30.0" ypos="1017.41796875"/>
<edge description="" id="43" name="17" priority="" source="39" target="40"/>
<node description="" height="70.0" id="40" name="did_pay" priority="(not defined)" style="STYLE_ACTIVITY_DECISION" width="80.0" xpos="64.0" ypos="1107.41796875"/>
<edge description="" id="45" name="18" priority="" source="40" target="44"/>
<edge description="" id="46" name="19" priority="" source="40" target="35"/>
<node description="" height="35.0" id="44" name="END M" priority="" style="STYLE_ACTIVITY_END" width="35.0" xpos="86.5" ypos="1254.8359375"/>
<test_case changed="false" combinations_data_rows="13" graph_id="13" name="Test situations 1, TDL= 1, ALG= PCT." note="" test_situations_data_rows="1">
<combinations_data_value col="0" selected_row="0">add_to_cart</combinations_data_value>
<combinations_data_value col="1" selected_row="0">2
</combinations_data_value>
<combinations_data_value col="0" selected_row="1">checkout</combinations_data_value>
<combinations_data_value col="1" selected_row="1">6
</combinations_data_value>
<combinations_data_value col="0" selected_row="2">END M</combinations_data_value>
<combinations_data_value col="1" selected_row="2">18
</combinations_data_value>
<combinations_data_value col="0" selected_row="3">continue_shopping</combinations_data_value>
<combinations_data_value col="1" selected_row="3">3
12
14
</combinations_data_value>
<combinations_data_value col="0" selected_row="4">confirm_order</combinations_data_value>
<combinations_data_value col="1" selected_row="4">11
</combinations_data_value>
<combinations_data_value col="0" selected_row="5">view_cart</combinations_data_value>
<combinations_data_value col="1" selected_row="5">5
</combinations_data_value>
<combinations_data_value col="0" selected_row="6">shipping_billing</combinations_data_value>
<combinations_data_value col="1" selected_row="6">9
10
</combinations_data_value>
<combinations_data_value col="0" selected_row="7">is_logged</combinations_data_value>
<combinations_data_value col="1" selected_row="7">7
</combinations_data_value>
<combinations_data_value col="0" selected_row="8">relay_to_bank</combinations_data_value>
<combinations_data_value col="1" selected_row="8">16
</combinations_data_value>
<combinations_data_value col="0" selected_row="9">did_pay</combinations_data_value>
<combinations_data_value col="1" selected_row="9">17
</combinations_data_value>
<combinations_data_value col="0" selected_row="10">open_product</combinations_data_value>
<combinations_data_value col="1" selected_row="10">1
4
</combinations_data_value>
<combinations_data_value col="0" selected_row="11">choose_payment</combinations_data_value>
<combinations_data_value col="1" selected_row="11">13
19
</combinations_data_value>
<combinations_data_value col="0" selected_row="12">login</combinations_data_value>
<combinations_data_value col="1" selected_row="12">8
</combinations_data_value>
<test_situation_row>
<value edge_id="11" name="1"/>
<value edge_id="14" name="2"/>
<value edge_id="16" name="3"/>
<value edge_id="17" name="4"/>
<value edge_id="14" name="2"/>
<value edge_id="16" name="3"/>
<value edge_id="19" name="5"/>
<value edge_id="21" name="6"/>
<value edge_id="23" name="7"/>
<value edge_id="25" name="8"/>
<value edge_id="28" name="10"/>
<value edge_id="30" name="11"/>
<value edge_id="32" name="12"/>
<value edge_id="17" name="4"/>
<value edge_id="14" name="2"/>
<value edge_id="16" name="3"/>
<value edge_id="19" name="5"/>
<value edge_id="21" name="6"/>
<value edge_id="23" name="7"/>
<value edge_id="27" name="9"/>
<value edge_id="30" name="11"/>
<value edge_id="36" name="13"/>
<value edge_id="37" name="14"/>
<value edge_id="17" name="4"/>
<value edge_id="14" name="2"/>
<value edge_id="16" name="3"/>
<value edge_id="19" name="5"/>
<value edge_id="21" name="6"/>
<value edge_id="23" name="7"/>
<value edge_id="25" name="8"/>
<value edge_id="28" name="10"/>
<value edge_id="30" name="11"/>
<value edge_id="32" name="12"/>
<value edge_id="17" name="4"/>
<value edge_id="14" name="2"/>
<value edge_id="16" name="3"/>
<value edge_id="19" name="5"/>
<value edge_id="21" name="6"/>
<value edge_id="23" name="7"/>
<value edge_id="27" name="9"/>
<value edge_id="30" name="11"/>
<value edge_id="36" name="13"/>
<value edge_id="42" name="16"/>
<value edge_id="43" name="17"/>
<value edge_id="46" name="19"/>
<value edge_id="37" name="14"/>
<value edge_id="17" name="4"/>
<value edge_id="14" name="2"/>
<value edge_id="16" name="3"/>
<value edge_id="19" name="5"/>
<value edge_id="21" name="6"/>
<value edge_id="23" name="7"/>
<value edge_id="25" name="8"/>
<value edge_id="28" name="10"/>
<value edge_id="30" name="11"/>
<value edge_id="32" name="12"/>
<value edge_id="17" name="4"/>
<value edge_id="14" name="2"/>
<value edge_id="16" name="3"/>
<value edge_id="19" name="5"/>
<value edge_id="21" name="6"/>
<value edge_id="23" name="7"/>
<value edge_id="27" name="9"/>
<value edge_id="30" name="11"/>
<value edge_id="36" name="13"/>
<value edge_id="42" name="16"/>
<value edge_id="43" name="17"/>
<value edge_id="45" name="18"/>
</test_situation_row>
</test_case>
<test_case changed="false" combinations_data_rows="12" graph_id="13" name="Test situations 2, TDL= 2, ALG= PCT." note="" test_situations_data_rows="2">
<combinations_data_value col="0" selected_row="0">add_to_cart</combinations_data_value>
<combinations_data_value col="1" selected_row="0">2 - 3
</combinations_data_value>
<combinations_data_value col="0" selected_row="1">checkout</combinations_data_value>
<combinations_data_value col="1" selected_row="1">6 - 7
</combinations_data_value>
<combinations_data_value col="0" selected_row="2">continue_shopping</combinations_data_value>
<combinations_data_value col="1" selected_row="2">3 - 4
3 - 5
12 - 4
12 - 5
14 - 4
14 - 5
</combinations_data_value>
<combinations_data_value col="0" selected_row="3">confirm_order</combinations_data_value>
<combinations_data_value col="1" selected_row="3">11 - 12
11 - 13
</combinations_data_value>
<combinations_data_value col="0" selected_row="4">view_cart</combinations_data_value>
<combinations_data_value col="1" selected_row="4">5 - 6
</combinations_data_value>
<combinations_data_value col="0" selected_row="5">shipping_billing</combinations_data_value>
<combinations_data_value col="1" selected_row="5">9 - 11
10 - 11
</combinations_data_value>
<combinations_data_value col="0" selected_row="6">is_logged</combinations_data_value>
<combinations_data_value col="1" selected_row="6">7 - 8
7 - 9
</combinations_data_value>
<combinations_data_value col="0" selected_row="7">relay_to_bank</combinations_data_value>
<combinations_data_value col="1" selected_row="7">16 - 17
</combinations_data_value>
<combinations_data_value col="0" selected_row="8">did_pay</combinations_data_value>
<combinations_data_value col="1" selected_row="8">17 - 18
17 - 19
</combinations_data_value>
<combinations_data_value col="0" selected_row="9">open_product</combinations_data_value>
<combinations_data_value col="1" selected_row="9">1 - 2
4 - 2
</combinations_data_value>
<combinations_data_value col="0" selected_row="10">choose_payment</combinations_data_value>
<combinations_data_value col="1" selected_row="10">13 - 14
13 - 16
19 - 14
19 - 16
</combinations_data_value>
<combinations_data_value col="0" selected_row="11">login</combinations_data_value>
<combinations_data_value col="1" selected_row="11">8 - 10
</combinations_data_value>
<test_situation_row>
<value edge_id="11" name="1"/>
<value edge_id="14" name="2"/>
<value edge_id="16" name="3"/>
<value edge_id="17" name="4"/>
<value edge_id="14" name="2"/>
<value edge_id="16" name="3"/>
<value edge_id="19" name="5"/>
<value edge_id="21" name="6"/>
<value edge_id="23" name="7"/>
<value edge_id="25" name="8"/>
<value edge_id="28" name="10"/>
<value edge_id="30" name="11"/>
<value edge_id="32" name="12"/>
<value edge_id="17" name="4"/>
<value edge_id="14" name="2"/>
<value edge_id="16" name="3"/>
<value edge_id="17" name="4"/>
<value edge_id="14" name="2"/>
<value edge_id="16" name="3"/>
<value edge_id="19" name="5"/>
<value edge_id="21" name="6"/>
<value edge_id="23" name="7"/>
<value edge_id="27" name="9"/>
<value edge_id="30" name="11"/>
<value edge_id="36" name="13"/>
<value edge_id="37" name="14"/>
<value edge_id="17" name="4"/>
<value edge_id="14" name="2"/>
<value edge_id="16" name="3"/>
<value edge_id="17" name="4"/>
<value edge_id="14" name="2"/>
<value edge_id="16" name="3"/>
<value edge_id="19" name="5"/>
<value edge_id="21" name="6"/>
<value edge_id="23" name="7"/>
<value edge_id="25" name="8"/>
<value edge_id="28" name="10"/>
<value edge_id="30" name="11"/>
<value edge_id="32" name="12"/>
<value edge_id="19" name="5"/>
<value edge_id="21" name="6"/>
<value edge_id="23" name="7"/>
<value edge_id="27" name="9"/>
<value edge_id="30" name="11"/>
<value edge_id="36" name="13"/>
<value edge_id="42" name="16"/>
<value edge_id="43" name="17"/>
<value edge_id="45" name="18"/>
</test_situation_row>
<test_situation_row>
<value edge_id="11" name="1"/>
<value edge_id="14" name="2"/>
<value edge_id="16" name="3"/>
<value edge_id="19" name="5"/>
<value edge_id="21" name="6"/>
<value edge_id="23" name="7"/>
<value edge_id="27" name="9"/>
<value edge_id="30" name="11"/>
<value edge_id="36" name="13"/>
<value edge_id="42" name="16"/>
<value edge_id="43" name="17"/>
<value edge_id="46" name="19"/>
<value edge_id="42" name="16"/>
<value edge_id="43" name="17"/>
<value edge_id="46" name="19"/>
<value edge_id="37" name="14"/>
<value edge_id="19" name="5"/>
<value edge_id="21" name="6"/>
<value edge_id="23" name="7"/>
<value edge_id="25" name="8"/>
<value edge_id="28" name="10"/>
<value edge_id="30" name="11"/>
<value edge_id="32" name="12"/>
<value edge_id="17" name="4"/>
<value edge_id="14" name="2"/>
<value edge_id="16" name="3"/>
<value edge_id="17" name="4"/>
<value edge_id="14" name="2"/>
<value edge_id="16" name="3"/>
<value edge_id="17" name="4"/>
<value edge_id="14" name="2"/>
<value edge_id="16" name="3"/>
<value edge_id="19" name="5"/>
<value edge_id="21" name="6"/>
<value edge_id="23" name="7"/>
<value edge_id="25" name="8"/>
<value edge_id="28" name="10"/>
<value edge_id="30" name="11"/>
<value edge_id="32" name="12"/>
<value edge_id="19" name="5"/>
<value edge_id="21" name="6"/>
<value edge_id="23" name="7"/>
<value edge_id="27" name="9"/>
<value edge_id="30" name="11"/>
<value edge_id="36" name="13"/>
<value edge_id="37" name="14"/>
<value edge_id="17" name="4"/>
<value edge_id="14" name="2"/>
<value edge_id="16" name="3"/>
<value edge_id="17" name="4"/>
<value edge_id="14" name="2"/>
<value edge_id="16" name="3"/>
<value edge_id="19" name="5"/>
<value edge_id="21" name="6"/>
<value edge_id="23" name="7"/>
<value edge_id="25" name="8"/>
<value edge_id="28" name="10"/>
<value edge_id="30" name="11"/>
<value edge_id="32" name="12"/>
<value edge_id="17" name="4"/>
<value edge_id="14" name="2"/>
<value edge_id="16" name="3"/>
<value edge_id="17" name="4"/>
<value edge_id="14" name="2"/>
<value edge_id="16" name="3"/>
<value edge_id="19" name="5"/>
<value edge_id="21" name="6"/>
<value edge_id="23" name="7"/>
<value edge_id="27" name="9"/>
<value edge_id="30" name="11"/>
<value edge_id="36" name="13"/>
<value edge_id="37" name="14"/>
<value edge_id="19" name="5"/>
<value edge_id="21" name="6"/>
<value edge_id="23" name="7"/>
<value edge_id="25" name="8"/>
<value edge_id="28" name="10"/>
<value edge_id="30" name="11"/>
<value edge_id="32" name="12"/>
<value edge_id="19" name="5"/>
<value edge_id="21" name="6"/>
<value edge_id="23" name="7"/>
<value edge_id="27" name="9"/>
<value edge_id="30" name="11"/>
<value edge_id="36" name="13"/>
<value edge_id="42" name="16"/>
<value edge_id="43" name="17"/>
<value edge_id="45" name="18"/>
</test_situation_row>
</test_case>
<test_case changed="false" combinations_data_rows="12" graph_id="13" name="Test situations 3, TDL= 3, ALG= PCT." note="" test_situations_data_rows="3">
<combinations_data_value col="0" selected_row="0">add_to_cart</combinations_data_value>
<combinations_data_value col="1" selected_row="0">2 - 3 - 4
2 - 3 - 5
</combinations_data_value>
<combinations_data_value col="0" selected_row="1">checkout</combinations_data_value>
<combinations_data_value col="1" selected_row="1">6 - 7 - 8
6 - 7 - 9
</combinations_data_value>
<combinations_data_value col="0" selected_row="2">continue_shopping</combinations_data_value>
<combinations_data_value col="1" selected_row="2">3 - 4 - 2
3 - 5 - 6
12 - 4 - 2
12 - 5 - 6
14 - 4 - 2
14 - 5 - 6
</combinations_data_value>
<combinations_data_value col="0" selected_row="3">confirm_order</combinations_data_value>
<combinations_data_value col="1" selected_row="3">11 - 12 - 4
11 - 12 - 5
11 - 13 - 14
11 - 13 - 16
</combinations_data_value>
<combinations_data_value col="0" selected_row="4">view_cart</combinations_data_value>
<combinations_data_value col="1" selected_row="4">5 - 6 - 7
</combinations_data_value>
<combinations_data_value col="0" selected_row="5">shipping_billing</combinations_data_value>
<combinations_data_value col="1" selected_row="5">9 - 11 - 12
9 - 11 - 13
10 - 11 - 12
10 - 11 - 13
</combinations_data_value>
<combinations_data_value col="0" selected_row="6">is_logged</combinations_data_value>
<combinations_data_value col="1" selected_row="6">7 - 8 - 10
7 - 9 - 11
</combinations_data_value>
<combinations_data_value col="0" selected_row="7">relay_to_bank</combinations_data_value>
<combinations_data_value col="1" selected_row="7">16 - 17 - 18
16 - 17 - 19
</combinations_data_value>
<combinations_data_value col="0" selected_row="8">did_pay</combinations_data_value>
<combinations_data_value col="1" selected_row="8">17 - 19 - 14
17 - 19 - 16
</combinations_data_value>
<combinations_data_value col="0" selected_row="9">open_product</combinations_data_value>
<combinations_data_value col="1" selected_row="9">1 - 2 - 3
4 - 2 - 3
</combinations_data_value>
<combinations_data_value col="0" selected_row="10">choose_payment</combinations_data_value>
<combinations_data_value col="1" selected_row="10">13 - 14 - 4
13 - 14 - 5
13 - 16 - 17
19 - 14 - 4
19 - 14 - 5
19 - 16 - 17
</combinations_data_value>
<combinations_data_value col="0" selected_row="11">login</combinations_data_value>
<combinations_data_value col="1" selected_row="11">8 - 10 - 11
</combinations_data_value>
<test_situation_row>
<value edge_id="11" name="1"/>
<value edge_id="14" name="2"/>
<value edge_id="16" name="3"/>
<value edge_id="17" name="4"/>
<value edge_id="14" name="2"/>
<value edge_id="16" name="3"/>
<value edge_id="19" name="5"/>
<value edge_id="21" name="6"/>
<value edge_id="23" name="7"/>
<value edge_id="25" name="8"/>
<value edge_id="28" name="10"/>
<value edge_id="30" name="11"/>
<value edge_id="32" name="12"/>
<value edge_id="17" name="4"/>
<value edge_id="14" name="2"/>
<value edge_id="16" name="3"/>
<value edge_id="17" name="4"/>
<value edge_id="14" name="2"/>
<value edge_id="16" name="3"/>
<value edge_id="19" name="5"/>
<value edge_id="21" name="6"/>
<value edge_id="23" name="7"/>
<value edge_id="27" name="9"/>
<value edge_id="30" name="11"/>
<value edge_id="32" name="12"/>
<value edge_id="19" name="5"/>
<value edge_id="21" name="6"/>
<value edge_id="23" name="7"/>
<value edge_id="25" name="8"/>
<value edge_id="28" name="10"/>
<value edge_id="30" name="11"/>
<value edge_id="36" name="13"/>
<value edge_id="37" name="14"/>
<value edge_id="17" name="4"/>
<value edge_id="14" name="2"/>
<value edge_id="16" name="3"/>
<value edge_id="17" name="4"/>
<value edge_id="14" name="2"/>
<value edge_id="16" name="3"/>
<value edge_id="19" name="5"/>
<value edge_id="21" name="6"/>
<value edge_id="23" name="7"/>
<value edge_id="27" name="9"/>
<value edge_id="30" name="11"/>
<value edge_id="36" name="13"/>
<value edge_id="42" name="16"/>
<value edge_id="43" name="17"/>
<value edge_id="45" name="18"/>
</test_situation_row>
<test_situation_row>
<value edge_id="11" name="1"/>
<value edge_id="14" name="2"/>
<value edge_id="16" name="3"/>
<value edge_id="19" name="5"/>
<value edge_id="21" name="6"/>
<value edge_id="23" name="7"/>
<value edge_id="27" name="9"/>
<value edge_id="30" name="11"/>
<value edge_id="36" name="13"/>
<value edge_id="37" name="14"/>
<value edge_id="19" name="5"/>
<value edge_id="21" name="6"/>
<value edge_id="23" name="7"/>
<value edge_id="25" name="8"/>
<value edge_id="28" name="10"/>
<value edge_id="30" name="11"/>
<value edge_id="32" name="12"/>
<value edge_id="17" name="4"/>
<value edge_id="14" name="2"/>
<value edge_id="16" name="3"/>
<value edge_id="17" name="4"/>
<value edge_id="14" name="2"/>
<value edge_id="16" name="3"/>
<value edge_id="17" name="4"/>
<value edge_id="14" name="2"/>
<value edge_id="16" name="3"/>
<value edge_id="19" name="5"/>
<value edge_id="21" name="6"/>
<value edge_id="23" name="7"/>
<value edge_id="25" name="8"/>
<value edge_id="28" name="10"/>
<value edge_id="30" name="11"/>
<value edge_id="36" name="13"/>
<value edge_id="42" name="16"/>
<value edge_id="43" name="17"/>
<value edge_id="46" name="19"/>
<value edge_id="37" name="14"/>
<value edge_id="17" name="4"/>
<value edge_id="14" name="2"/>
<value edge_id="16" name="3"/>
<value edge_id="17" name="4"/>
<value edge_id="14" name="2"/>
<value edge_id="16" name="3"/>
<value edge_id="19" name="5"/>
<value edge_id="21" name="6"/>
<value edge_id="23" name="7"/>
<value edge_id="27" name="9"/>
<value edge_id="30" name="11"/>
<value edge_id="32" name="12"/>
<value edge_id="19" name="5"/>
<value edge_id="21" name="6"/>
<value edge_id="23" name="7"/>
<value edge_id="25" name="8"/>
<value edge_id="28" name="10"/>
<value edge_id="30" name="11"/>
<value edge_id="32" name="12"/>
<value edge_id="17" name="4"/>
<value edge_id="14" name="2"/>
<value edge_id="16" name="3"/>
<value edge_id="17" name="4"/>
<value edge_id="14" name="2"/>
<value edge_id="16" name="3"/>
<value edge_id="19" name="5"/>
<value edge_id="21" name="6"/>
<value edge_id="23" name="7"/>
<value edge_id="27" name="9"/>
<value edge_id="30" name="11"/>
<value edge_id="32" name="12"/>
<value edge_id="19" name="5"/>
<value edge_id="21" name="6"/>
<value edge_id="23" name="7"/>
<value edge_id="25" name="8"/>
<value edge_id="28" name="10"/>
<value edge_id="30" name="11"/>
<value edge_id="36" name="13"/>
<value edge_id="37" name="14"/>
<value edge_id="17" name="4"/>
<value edge_id="14" name="2"/>
<value edge_id="16" name="3"/>
<value edge_id="17" name="4"/>
<value edge_id="14" name="2"/>
<value edge_id="16" name="3"/>
<value edge_id="19" name="5"/>
<value edge_id="21" name="6"/>
<value edge_id="23" name="7"/>
<value edge_id="27" name="9"/>
<value edge_id="30" name="11"/>
<value edge_id="36" name="13"/>
<value edge_id="42" name="16"/>
<value edge_id="43" name="17"/>
<value edge_id="45" name="18"/>
</test_situation_row>
<test_situation_row>
<value edge_id="11" name="1"/>
<value edge_id="14" name="2"/>
<value edge_id="16" name="3"/>
<value edge_id="19" name="5"/>
<value edge_id="21" name="6"/>
<value edge_id="23" name="7"/>
<value edge_id="27" name="9"/>
<value edge_id="30" name="11"/>
<value edge_id="36" name="13"/>
<value edge_id="42" name="16"/>
<value edge_id="43" name="17"/>
<value edge_id="46" name="19"/>
<value edge_id="42" name="16"/>
<value edge_id="43" name="17"/>
<value edge_id="46" name="19"/>
<value edge_id="37" name="14"/>
<value edge_id="19" name="5"/>
<value edge_id="21" name="6"/>
<value edge_id="23" name="7"/>
<value edge_id="25" name="8"/>
<value edge_id="28" name="10"/>
<value edge_id="30" name="11"/>
<value edge_id="32" name="12"/>
<value edge_id="17" name="4"/>
<value edge_id="14" name="2"/>
<value edge_id="16" name="3"/>
<value edge_id="17" name="4"/>
<value edge_id="14" name="2"/>
<value edge_id="16" name="3"/>
<value edge_id="17" name="4"/>
<value edge_id="14" name="2"/>
<value edge_id="16" name="3"/>
<value edge_id="19" name="5"/>
<value edge_id="21" name="6"/>
<value edge_id="23" name="7"/>
<value edge_id="25" name="8"/>
<value edge_id="28" name="10"/>
<value edge_id="30" name="11"/>
<value edge_id="36" name="13"/>
<value edge_id="37" name="14"/>
<value edge_id="17" name="4"/>
<value edge_id="14" name="2"/>
<value edge_id="16" name="3"/>
<value edge_id="17" name="4"/>
<value edge_id="14" name="2"/>
<value edge_id="16" name="3"/>
<value edge_id="19" name="5"/>
<value edge_id="21" name="6"/>
<value edge_id="23" name="7"/>
<value edge_id="27" name="9"/>
<value edge_id="30" name="11"/>
<value edge_id="32" name="12"/>
<value edge_id="19" name="5"/>
<value edge_id="21" name="6"/>
<value edge_id="23" name="7"/>
<value edge_id="25" name="8"/>
<value edge_id="28" name="10"/>
<value edge_id="30" name="11"/>
<value edge_id="32" name="12"/>
<value edge_id="17" name="4"/>
<value edge_id="14" name="2"/>
<value edge_id="16" name="3"/>
<value edge_id="17" name="4"/>
<value edge_id="14" name="2"/>
<value edge_id="16" name="3"/>
<value edge_id="19" name="5"/>
<value edge_id="21" name="6"/>
<value edge_id="23" name="7"/>
<value edge_id="27" name="9"/>
<value edge_id="30" name="11"/>
<value edge_id="32" name="12"/>
<value edge_id="19" name="5"/>
<value edge_id="21" name="6"/>
<value edge_id="23" name="7"/>
<value edge_id="25" name="8"/>
<value edge_id="28" name="10"/>
<value edge_id="30" name="11"/>
<value edge_id="36" name="13"/>
<value edge_id="37" name="14"/>
<value edge_id="19" name="5"/>
<value edge_id="21" name="6"/>
<value edge_id="23" name="7"/>
<value edge_id="27" name="9"/>
<value edge_id="30" name="11"/>
<value edge_id="36" name="13"/>
<value edge_id="42" name="16"/>
<value edge_id="43" name="17"/>
<value edge_id="45" name="18"/>
</test_situation_row>
</test_case>
</graph>
<graph description="" id="17" linkage="" name="Wishlist path" type="ACTIVITY_DIAGRAM" version="">
<node description="" height="25.0" id="2" name="START" priority="" style="STYLE_ACTIVITY_START" width="25.0" xpos="152.5" ypos="22.41796875"/>
<edge description="" id="5" name="1" priority="" source="2" target="3"/>
<node description="" height="40.0" id="3" name="browse_product" priority="(not defined)" style="STYLE_ACTIVITY_NODE" width="80.0" xpos="125.0" ypos="97.41796875"/>
<edge description="" id="7" name="2" priority="" source="3" target="6"/>
<node description="" height="40.0" id="4" name="add_to_wishlist" priority="(not defined)" style="STYLE_ACTIVITY_NODE" width="80.0" xpos="95.0" ypos="457.41796875"/>
<edge description="" id="11" name="5" priority="" source="4" target="10"/>
<node description="" height="40.0" id="6" name="likes_product" priority="(not defined)" style="STYLE_ACTIVITY_DECISION" width="40.0" xpos="115.0" ypos="187.41796875"/>
<edge description="" id="8" name="3" priority="" source="6" target="3"/>
<edge description="" id="41" name="20" priority="" source="6" target="39"/>
<node description="" height="40.0" id="10" name="is_done" priority="(not defined)" style="STYLE_ACTIVITY_DECISION" width="40.0" xpos="145.0" ypos="547.41796875"/>
<edge description="" id="12" name="6" priority="" source="10" target="3"/>
<edge description="" id="14" name="7" priority="" source="10" target="13"/>
<node description="" height="40.0" id="13" name="goto_wishlist" priority="(not defined)" style="STYLE_ACTIVITY_NODE" width="80.0" xpos="119.0" ypos="637.41796875"/>
<edge description="" id="22" name="9" priority="" source="13" target="17"/>
<node description="" height="40.0" id="17" name="set_amount" priority="(not defined)" style="STYLE_ACTIVITY_NODE" width="80.0" xpos="113.0" ypos="727.41796875"/>
<edge description="" id="20" name="10" priority="" source="17" target="19"/>
<node description="" height="40.0" id="19" name="add_description" priority="(not defined)" style="STYLE_ACTIVITY_NODE" width="80.0" xpos="110.0" ypos="817.41796875"/>
<edge description="" id="31" name="15" priority="" source="19" target="28"/>
<node description="" height="40.0" id="23" name="what_to_do" priority="(not defined)" style="STYLE_ACTIVITY_DECISION" width="40.0" xpos="130.0" ypos="997.41796875"/>
<edge description="" id="26" name="12" priority="" source="23" target="25"/>
<edge description="" id="29" name="13" priority="" source="23" target="27"/>
<edge description="" id="34" name="16" priority="" source="23" target="33"/>
<node description="" height="40.0" id="25" name="remove_item" priority="(not defined)" style="STYLE_ACTIVITY_NODE" width="80.0" xpos="0.0" ypos="1087.41796875"/>
<edge description="" id="38" name="19" priority="" source="25" target="35"/>
<node description="" height="40.0" id="27" name="add_to_cart" priority="(not defined)" style="STYLE_ACTIVITY_NODE" width="80.0" xpos="110.0" ypos="1087.41796875"/>
<edge description="" id="36" name="17" priority="" source="27" target="35"/>
<node description="" height="40.0" id="28" name="update" priority="(not defined)" style="STYLE_ACTIVITY_NODE" width="80.0" xpos="110.0" ypos="907.41796875"/>
<edge description="" id="32" name="14" priority="" source="28" target="23"/>
<node description="" height="40.0" id="33" name="share" priority="(not defined)" style="STYLE_ACTIVITY_NODE" width="80.0" xpos="220.0" ypos="1087.41796875"/>
<edge description="" id="37" name="18" priority="" source="33" target="35"/>
<node description="" height="35.0" id="35" name="END M" priority="" style="STYLE_ACTIVITY_END" width="35.0" xpos="132.5" ypos="1204.8359375"/>
<node description="" height="40.0" id="39" name="is_logged" priority="(not defined)" style="STYLE_ACTIVITY_DECISION" width="40.0" xpos="115.0" ypos="277.41796875"/>
<edge description="" id="42" name="21" priority="" source="39" target="40"/>
<edge description="" id="43" name="22" priority="" source="39" target="4"/>
<node description="" height="40.0" id="40" name="login" priority="(not defined)" style="STYLE_ACTIVITY_NODE" width="80.0" xpos="80.0" ypos="367.41796875"/>
<edge description="" id="44" name="23" priority="" source="40" target="4"/>
<test_case changed="false" combinations_data_rows="15" graph_id="17" name="Test situations 1, TDL= 1, ALG= PCT." note="" test_situations_data_rows="3">
<combinations_data_value col="0" selected_row="0">is_done</combinations_data_value>
<combinations_data_value col="1" selected_row="0">5
</combinations_data_value>
<combinations_data_value col="0" selected_row="1">remove_item</combinations_data_value>
<combinations_data_value col="1" selected_row="1">12
</combinations_data_value>
<combinations_data_value col="0" selected_row="2">END M</combinations_data_value>
<combinations_data_value col="1" selected_row="2">19
17
18
</combinations_data_value>
<combinations_data_value col="0" selected_row="3">what_to_do</combinations_data_value>
<combinations_data_value col="1" selected_row="3">14
</combinations_data_value>
<combinations_data_value col="0" selected_row="4">browse_product</combinations_data_value>
<combinations_data_value col="1" selected_row="4">1
3
6
</combinations_data_value>
<combinations_data_value col="0" selected_row="5">is_logged</combinations_data_value>
<combinations_data_value col="1" selected_row="5">20
</combinations_data_value>
<combinations_data_value col="0" selected_row="6">goto_wishlist</combinations_data_value>
<combinations_data_value col="1" selected_row="6">7
</combinations_data_value>
<combinations_data_value col="0" selected_row="7">add_description</combinations_data_value>
<combinations_data_value col="1" selected_row="7">10
</combinations_data_value>
<combinations_data_value col="0" selected_row="8">set_amount</combinations_data_value>
<combinations_data_value col="1" selected_row="8">9
</combinations_data_value>
<combinations_data_value col="0" selected_row="9">login</combinations_data_value>
<combinations_data_value col="1" selected_row="9">21
</combinations_data_value>
<combinations_data_value col="0" selected_row="10">likes_product</combinations_data_value>
<combinations_data_value col="1" selected_row="10">2
</combinations_data_value>
<combinations_data_value col="0" selected_row="11">add_to_cart</combinations_data_value>
<combinations_data_value col="1" selected_row="11">13
</combinations_data_value>
<combinations_data_value col="0" selected_row="12">share</combinations_data_value>
<combinations_data_value col="1" selected_row="12">16
</combinations_data_value>
<combinations_data_value col="0" selected_row="13">add_to_wishlist</combinations_data_value>
<combinations_data_value col="1" selected_row="13">22
23
</combinations_data_value>
<combinations_data_value col="0" selected_row="14">update</combinations_data_value>
<combinations_data_value col="1" selected_row="14">15
</combinations_data_value>
<test_situation_row>
<value edge_id="5" name="1"/>
<value edge_id="7" name="2"/>
<value edge_id="8" name="3"/>
<value edge_id="7" name="2"/>
<value edge_id="41" name="20"/>
<value edge_id="42" name="21"/>
<value edge_id="44" name="23"/>
<value edge_id="11" name="5"/>
<value edge_id="12" name="6"/>
<value edge_id="7" name="2"/>
<value edge_id="8" name="3"/>
<value edge_id="7" name="2"/>
<value edge_id="41" name="20"/>
<value edge_id="43" name="22"/>
<value edge_id="11" name="5"/>
<value edge_id="14" name="7"/>
<value edge_id="22" name="9"/>
<value edge_id="20" name="10"/>
<value edge_id="31" name="15"/>
<value edge_id="32" name="14"/>
<value edge_id="26" name="12"/>
<value edge_id="38" name="19"/>
</test_situation_row>
<test_situation_row>
<value edge_id="5" name="1"/>
<value edge_id="7" name="2"/>
<value edge_id="41" name="20"/>
<value edge_id="43" name="22"/>
<value edge_id="11" name="5"/>
<value edge_id="14" name="7"/>
<value edge_id="22" name="9"/>
<value edge_id="20" name="10"/>
<value edge_id="31" name="15"/>
<value edge_id="32" name="14"/>
<value edge_id="29" name="13"/>
<value edge_id="36" name="17"/>
</test_situation_row>
<test_situation_row>
<value edge_id="5" name="1"/>
<value edge_id="7" name="2"/>
<value edge_id="41" name="20"/>
<value edge_id="43" name="22"/>
<value edge_id="11" name="5"/>
<value edge_id="14" name="7"/>
<value edge_id="22" name="9"/>
<value edge_id="20" name="10"/>
<value edge_id="31" name="15"/>
<value edge_id="32" name="14"/>
<value edge_id="34" name="16"/>
<value edge_id="37" name="18"/>
</test_situation_row>
</test_case>
<test_case changed="false" combinations_data_rows="14" graph_id="17" name="Test situations 2, TDL= 2, ALG= PCT." note="" test_situations_data_rows="3">
<combinations_data_value col="0" selected_row="0">is_done</combinations_data_value>
<combinations_data_value col="1" selected_row="0">5 - 6
5 - 7
</combinations_data_value>
<combinations_data_value col="0" selected_row="1">remove_item</combinations_data_value>
<combinations_data_value col="1" selected_row="1">12 - 19
</combinations_data_value>
<combinations_data_value col="0" selected_row="2">what_to_do</combinations_data_value>
<combinations_data_value col="1" selected_row="2">14 - 12
14 - 13
14 - 16
</combinations_data_value>
<combinations_data_value col="0" selected_row="3">browse_product</combinations_data_value>
<combinations_data_value col="1" selected_row="3">1 - 2
3 - 2
6 - 2
</combinations_data_value>
<combinations_data_value col="0" selected_row="4">is_logged</combinations_data_value>
<combinations_data_value col="1" selected_row="4">20 - 21
20 - 22
</combinations_data_value>
<combinations_data_value col="0" selected_row="5">goto_wishlist</combinations_data_value>
<combinations_data_value col="1" selected_row="5">7 - 9
</combinations_data_value>
<combinations_data_value col="0" selected_row="6">add_description</combinations_data_value>
<combinations_data_value col="1" selected_row="6">10 - 15
</combinations_data_value>
<combinations_data_value col="0" selected_row="7">set_amount</combinations_data_value>
<combinations_data_value col="1" selected_row="7">9 - 10
</combinations_data_value>
<combinations_data_value col="0" selected_row="8">login</combinations_data_value>
<combinations_data_value col="1" selected_row="8">21 - 23
</combinations_data_value>
<combinations_data_value col="0" selected_row="9">likes_product</combinations_data_value>
<combinations_data_value col="1" selected_row="9">2 - 3
2 - 20
</combinations_data_value>
<combinations_data_value col="0" selected_row="10">add_to_cart</combinations_data_value>
<combinations_data_value col="1" selected_row="10">13 - 17
</combinations_data_value>
<combinations_data_value col="0" selected_row="11">share</combinations_data_value>
<combinations_data_value col="1" selected_row="11">16 - 18
</combinations_data_value>
<combinations_data_value col="0" selected_row="12">add_to_wishlist</combinations_data_value>
<combinations_data_value col="1" selected_row="12">22 - 5
23 - 5
</combinations_data_value>
<combinations_data_value col="0" selected_row="13">update</combinations_data_value>
<combinations_data_value col="1" selected_row="13">15 - 14
</combinations_data_value>
<test_situation_row>
<value edge_id="5" name="1"/>
<value edge_id="7" name="2"/>
<value edge_id="8" name="3"/>
<value edge_id="7" name="2"/>
<value edge_id="41" name="20"/>
<value edge_id="42" name="21"/>
<value edge_id="44" name="23"/>
<value edge_id="11" name="5"/>
<value edge_id="12" name="6"/>
<value edge_id="7" name="2"/>
<value edge_id="8" name="3"/>
<value edge_id="7" name="2"/>
<value edge_id="41" name="20"/>
<value edge_id="43" name="22"/>
<value edge_id="11" name="5"/>
<value edge_id="14" name="7"/>
<value edge_id="22" name="9"/>
<value edge_id="20" name="10"/>
<value edge_id="31" name="15"/>
<value edge_id="32" name="14"/>
<value edge_id="26" name="12"/>
<value edge_id="38" name="19"/>
</test_situation_row>
<test_situation_row>
<value edge_id="5" name="1"/>
<value edge_id="7" name="2"/>
<value edge_id="41" name="20"/>
<value edge_id="43" name="22"/>
<value edge_id="11" name="5"/>
<value edge_id="14" name="7"/>
<value edge_id="22" name="9"/>
<value edge_id="20" name="10"/>
<value edge_id="31" name="15"/>
<value edge_id="32" name="14"/>
<value edge_id="29" name="13"/>
<value edge_id="36" name="17"/>
</test_situation_row>
<test_situation_row>
<value edge_id="5" name="1"/>
<value edge_id="7" name="2"/>
<value edge_id="41" name="20"/>
<value edge_id="43" name="22"/>
<value edge_id="11" name="5"/>
<value edge_id="14" name="7"/>
<value edge_id="22" name="9"/>
<value edge_id="20" name="10"/>
<value edge_id="31" name="15"/>
<value edge_id="32" name="14"/>
<value edge_id="34" name="16"/>
<value edge_id="37" name="18"/>
</test_situation_row>
</test_case>
<test_case changed="false" combinations_data_rows="11" graph_id="17" name="Test situations 3, TDL= 3, ALG= PCT." note="" test_situations_data_rows="3">
<combinations_data_value col="0" selected_row="0">is_done</combinations_data_value>
<combinations_data_value col="1" selected_row="0">5 - 6 - 2
5 - 7 - 9
</combinations_data_value>
<combinations_data_value col="0" selected_row="1">likes_product</combinations_data_value>
<combinations_data_value col="1" selected_row="1">2 - 3 - 2
2 - 20 - 21
2 - 20 - 22
</combinations_data_value>
<combinations_data_value col="0" selected_row="2">what_to_do</combinations_data_value>
<combinations_data_value col="1" selected_row="2">14 - 12 - 19
14 - 13 - 17
14 - 16 - 18
</combinations_data_value>
<combinations_data_value col="0" selected_row="3">browse_product</combinations_data_value>
<combinations_data_value col="1" selected_row="3">1 - 2 - 3
1 - 2 - 20
3 - 2 - 3
3 - 2 - 20
6 - 2 - 3
6 - 2 - 20
</combinations_data_value>
<combinations_data_value col="0" selected_row="4">is_logged</combinations_data_value>
<combinations_data_value col="1" selected_row="4">20 - 21 - 23
20 - 22 - 5
</combinations_data_value>
<combinations_data_value col="0" selected_row="5">goto_wishlist</combinations_data_value>
<combinations_data_value col="1" selected_row="5">7 - 9 - 10
</combinations_data_value>
<combinations_data_value col="0" selected_row="6">add_description</combinations_data_value>
<combinations_data_value col="1" selected_row="6">10 - 15 - 14
</combinations_data_value>
<combinations_data_value col="0" selected_row="7">add_to_wishlist</combinations_data_value>
<combinations_data_value col="1" selected_row="7">22 - 5 - 6
22 - 5 - 7
23 - 5 - 6
23 - 5 - 7
</combinations_data_value>
<combinations_data_value col="0" selected_row="8">set_amount</combinations_data_value>
<combinations_data_value col="1" selected_row="8">9 - 10 - 15
</combinations_data_value>
<combinations_data_value col="0" selected_row="9">login</combinations_data_value>
<combinations_data_value col="1" selected_row="9">21 - 23 - 5
</combinations_data_value>
<combinations_data_value col="0" selected_row="10">update</combinations_data_value>
<combinations_data_value col="1" selected_row="10">15 - 14 - 12
15 - 14 - 13
15 - 14 - 16
</combinations_data_value>
<test_situation_row>
<value edge_id="5" name="1"/>
<value edge_id="7" name="2"/>
<value edge_id="8" name="3"/>
<value edge_id="7" name="2"/>
<value edge_id="8" name="3"/>
<value edge_id="7" name="2"/>
<value edge_id="41" name="20"/>
<value edge_id="42" name="21"/>
<value edge_id="44" name="23"/>
<value edge_id="11" name="5"/>
<value edge_id="12" name="6"/>
<value edge_id="7" name="2"/>
<value edge_id="8" name="3"/>
<value edge_id="7" name="2"/>
<value edge_id="8" name="3"/>
<value edge_id="7" name="2"/>
<value edge_id="41" name="20"/>
<value edge_id="43" name="22"/>
<value edge_id="11" name="5"/>
<value edge_id="12" name="6"/>
<value edge_id="7" name="2"/>
<value edge_id="41" name="20"/>
<value edge_id="42" name="21"/>
<value edge_id="44" name="23"/>
<value edge_id="11" name="5"/>
<value edge_id="14" name="7"/>
<value edge_id="22" name="9"/>
<value edge_id="20" name="10"/>
<value edge_id="31" name="15"/>
<value edge_id="32" name="14"/>
<value edge_id="26" name="12"/>
<value edge_id="38" name="19"/>
</test_situation_row>
<test_situation_row>
<value edge_id="5" name="1"/>
<value edge_id="7" name="2"/>
<value edge_id="41" name="20"/>
<value edge_id="42" name="21"/>
<value edge_id="44" name="23"/>
<value edge_id="11" name="5"/>
<value edge_id="12" name="6"/>
<value edge_id="7" name="2"/>
<value edge_id="8" name="3"/>
<value edge_id="7" name="2"/>
<value edge_id="8" name="3"/>
<value edge_id="7" name="2"/>
<value edge_id="41" name="20"/>
<value edge_id="43" name="22"/>
<value edge_id="11" name="5"/>
<value edge_id="14" name="7"/>
<value edge_id="22" name="9"/>
<value edge_id="20" name="10"/>
<value edge_id="31" name="15"/>
<value edge_id="32" name="14"/>
<value edge_id="29" name="13"/>
<value edge_id="36" name="17"/>
</test_situation_row>
<test_situation_row>
<value edge_id="5" name="1"/>
<value edge_id="7" name="2"/>
<value edge_id="41" name="20"/>
<value edge_id="43" name="22"/>
<value edge_id="11" name="5"/>
<value edge_id="14" name="7"/>
<value edge_id="22" name="9"/>
<value edge_id="20" name="10"/>
<value edge_id="31" name="15"/>
<value edge_id="32" name="14"/>
<value edge_id="34" name="16"/>
<value edge_id="37" name="18"/>
</test_situation_row>
</test_case>
</graph>
</graphs>
<crud linkage="" version="">
<description/>
<entities>
<entity entity_id="E0">
<name>E1</name>
<description/>
<attributes/>
</entity>
<entity entity_id="E1">
<name>E2</name>
<description/>
<attributes/>
</entity>
<entity entity_id="E2">
<name>E3</name>
<description/>
<attributes/>
</entity>
</entities>
<functions>
<function function_id="F0">
<name>F1</name>
<description/>
</function>
<function function_id="F1">
<name>F2</name>
<description/>
</function>
<function function_id="F2">
<name>F3</name>
<description/>
</function>
</functions>
<actions>
<action entity_id_ref="E0" function_id_ref="F0">
<create imns="false" is_set="false">
<touched_attributes/>
</create>
<read imns="false" is_set="false">
<touched_attributes/>
</read>
<update imns="false" is_set="false">
<touched_attributes/>
</update>
<delete imns="false" is_set="false">
<touched_attributes/>
</delete>
<best_read imns="false" is_set="false"/>
<influences>
<influence entity_id_ref="E1" imns="false" is_set="false"/>
<influence entity_id_ref="E2" imns="false" is_set="false"/>
</influences>
</action>
<action entity_id_ref="E1" function_id_ref="F0">
<create imns="false" is_set="false">
<touched_attributes/>
</create>
<read imns="false" is_set="false">
<touched_attributes/>
</read>
<update imns="false" is_set="false">
<touched_attributes/>
</update>
<delete imns="false" is_set="false">
<touched_attributes/>
</delete>
<best_read imns="false" is_set="false"/>
<influences>
<influence entity_id_ref="E0" imns="false" is_set="false"/>
<influence entity_id_ref="E2" imns="false" is_set="false"/>
</influences>
</action>
<action entity_id_ref="E2" function_id_ref="F0">
<create imns="false" is_set="false">
<touched_attributes/>
</create>
<read imns="false" is_set="false">
<touched_attributes/>
</read>
<update imns="false" is_set="false">
<touched_attributes/>
</update>
<delete imns="false" is_set="false">
<touched_attributes/>
</delete>
<best_read imns="false" is_set="false"/>
<influences>
<influence entity_id_ref="E0" imns="false" is_set="false"/>
<influence entity_id_ref="E1" imns="false" is_set="false"/>
</influences>
</action>
<action entity_id_ref="E0" function_id_ref="F1">
<create imns="false" is_set="false">
<touched_attributes/>
</create>
<read imns="false" is_set="false">
<touched_attributes/>
</read>
<update imns="false" is_set="false">
<touched_attributes/>
</update>
<delete imns="false" is_set="false">
<touched_attributes/>
</delete>
<best_read imns="false" is_set="false"/>
<influences>
<influence entity_id_ref="E1" imns="false" is_set="false"/>
<influence entity_id_ref="E2" imns="false" is_set="false"/>
</influences>
</action>
<action entity_id_ref="E1" function_id_ref="F1">
<create imns="false" is_set="false">
<touched_attributes/>
</create>
<read imns="false" is_set="false">
<touched_attributes/>
</read>
<update imns="false" is_set="false">
<touched_attributes/>
</update>
<delete imns="false" is_set="false">
<touched_attributes/>
</delete>
<best_read imns="false" is_set="false"/>
<influences>
<influence entity_id_ref="E0" imns="false" is_set="false"/>
<influence entity_id_ref="E2" imns="false" is_set="false"/>
</influences>
</action>
<action entity_id_ref="E2" function_id_ref="F1">
<create imns="false" is_set="false">
<touched_attributes/>
</create>
<read imns="false" is_set="false">
<touched_attributes/>
</read>
<update imns="false" is_set="false">
<touched_attributes/>
</update>
<delete imns="false" is_set="false">
<touched_attributes/>
</delete>
<best_read imns="false" is_set="false"/>
<influences>
<influence entity_id_ref="E0" imns="false" is_set="false"/>
<influence entity_id_ref="E1" imns="false" is_set="false"/>
</influences>
</action>
<action entity_id_ref="E0" function_id_ref="F2">
<create imns="false" is_set="false">
<touched_attributes/>
</create>
<read imns="false" is_set="false">
<touched_attributes/>
</read>
<update imns="false" is_set="false">
<touched_attributes/>
</update>
<delete imns="false" is_set="false">
<touched_attributes/>
</delete>
<best_read imns="false" is_set="false"/>
<influences>
<influence entity_id_ref="E1" imns="false" is_set="false"/>
<influence entity_id_ref="E2" imns="false" is_set="false"/>
</influences>
</action>
<action entity_id_ref="E1" function_id_ref="F2">
<create imns="false" is_set="false">
<touched_attributes/>
</create>
<read imns="false" is_set="false">
<touched_attributes/>
</read>
<update imns="false" is_set="false">
<touched_attributes/>
</update>
<delete imns="false" is_set="false">
<touched_attributes/>
</delete>
<best_read imns="false" is_set="false"/>
<influences>
<influence entity_id_ref="E0" imns="false" is_set="false"/>
<influence entity_id_ref="E2" imns="false" is_set="false"/>
</influences>
</action>
<action entity_id_ref="E2" function_id_ref="F2">
<create imns="false" is_set="false">
<touched_attributes/>
</create>
<read imns="false" is_set="false">
<touched_attributes/>
</read>
<update imns="false" is_set="false">
<touched_attributes/>
</update>
<delete imns="false" is_set="false">
<touched_attributes/>
</delete>
<best_read imns="false" is_set="false"/>
<influences>
<influence entity_id_ref="E0" imns="false" is_set="false"/>
<influence entity_id_ref="E1" imns="false" is_set="false"/>
</influences>
</action>
</actions>
<test_cases/>
</crud>
</project>
